Sessions_Assignments/Session_5/shift_reg_lab/transcript
# //  Questa Sim-64
# //  Version 2021.1 win64 Jan 19 2021
# //
# //  Copyright 1991-2021 Mentor Graphics Corporation
# //  All Rights Reserved.
# //
# //  QuestaSim and its associated documentation contain trade
# //  secrets and commercial or financial information that are the property of
# //  Mentor Graphics Corporation and are privileged, confidential,
# //  and exempt from disclosure under the Freedom of Information Act,
# //  5 U.S.C. Section 552. Furthermore, this information
# //  is prohibited from disclosure under the Trade Secrets Act,
# //  18 U.S.C. Section 1905.
# //
pwd
# C:/Users/ABDOU/Desktop/Digital_World/Digital_Ic_Diploma/verification/Session_5/lab
ls
# certe_dump.xml         shift_reg_env.sv         shift_reg_test.sv  
# lab.rar                shift_reg_if.sv          src_files.list     
# run.do                 shift_reg_main_seq.sv    top.sv             
# shift_reg.v            shift_reg_mon.sv         transcript         
# shift_reg_agt.sv       shift_reg_reset_seq.sv   vsim.wlf           
# shift_reg_config.sv    shift_reg_scoreboard.sv  work               
# shift_reg_coverage.sv  shift_reg_seq_item.sv                       
# shift_reg_driver.sv    shift_reg_sqr.sv                            
do run.do
# ** Warning: (vlib-34) Library already exists at "work".
# Errors: 0, Warnings: 1
# QuestaSim-64 vlog 2021.1 Compiler 2021.01 Jan 19 2021
# Start time: 14:17:31 on May 09,2025
# vlog -reportprogress 300 -f src_files.list 
# -- Compiling package shift_reg_seq_item_pkg
# -- Importing package mtiUvm.uvm_pkg (uvm-1.1d Built-in)
# ** Note: (vlog-2286) shift_reg_seq_item.sv(3): Using implicit +incdir+C:/questasim64_2021.1/uvm-1.1d/../verilog_src/uvm-1.1d/src from import uvm_pkg
# -- Compiling package shift_reg_coverage_pkg
# -- Importing package shift_reg_seq_item_pkg
# -- Compiling package shift_reg_scoreboard_pkg
# -- Compiling package shift_reg_sequencer_pkg
# -- Compiling package shift_reg_reset_seq_pkg
# -- Compiling package shift_reg_main_seq_pkg
# -- Compiling module shift_reg
# -- Compiling interface shift_reg_if
# -- Compiling package shift_config_pkg
# -- Compiling package shift_reg_monitor_pkg
# -- Importing package shift_config_pkg
# -- Compiling package shift_driver_pkg
# -- Compiling package shift_reg_agent_pkg
# -- Importing package shift_driver_pkg
# -- Importing package shift_reg_sequencer_pkg
# -- Importing package shift_reg_monitor_pkg
# -- Compiling package shift_reg_env_pkg
# -- Importing package shift_reg_agent_pkg
# -- Importing package shift_reg_scoreboard_pkg
# -- Importing package shift_reg_coverage_pkg
# -- Compiling package shift_reg_test_pkg
# -- Importing package shift_reg_env_pkg
# -- Importing package shift_reg_reset_seq_pkg
# -- Importing package shift_reg_main_seq_pkg
# ** Error: shift_reg_test.sv(40): (vlog-2164) Class or package 'shift_reg_seq_item' not found.
# ** Error: (vlog-13069) shift_reg_test.sv(40): near "::": syntax error, unexpected ::, expecting ')'.
# ** Error: shift_reg_test.sv(40): (vlog-2164) Class or package 'shift_reg_seq_item_dis_rst' not found.
# End time: 14:17:32 on May 09,2025, Elapsed time: 0:00:01
# Errors: 3, Warnings: 0
# ** Error: C:/questasim64_2021.1/win64/vlog failed.
# Error in macro ./run.do line 2
# C:/questasim64_2021.1/win64/vlog failed.
#     while executing
# "vlog -f src_files.list"
do run.do
# ** Warning: (vlib-34) Library already exists at "work".
# Errors: 0, Warnings: 1
# QuestaSim-64 vlog 2021.1 Compiler 2021.01 Jan 19 2021
# Start time: 14:17:56 on May 09,2025
# vlog -reportprogress 300 -f src_files.list 
# -- Compiling package shift_reg_seq_item_pkg
# -- Importing package mtiUvm.uvm_pkg (uvm-1.1d Built-in)
# ** Note: (vlog-2286) shift_reg_seq_item.sv(3): Using implicit +incdir+C:/questasim64_2021.1/uvm-1.1d/../verilog_src/uvm-1.1d/src from import uvm_pkg
# -- Compiling package shift_reg_coverage_pkg
# -- Importing package shift_reg_seq_item_pkg
# -- Compiling package shift_reg_scoreboard_pkg
# -- Compiling package shift_reg_sequencer_pkg
# -- Compiling package shift_reg_reset_seq_pkg
# -- Compiling package shift_reg_main_seq_pkg
# -- Compiling module shift_reg
# -- Compiling interface shift_reg_if
# -- Compiling package shift_config_pkg
# -- Compiling package shift_reg_monitor_pkg
# -- Importing package shift_config_pkg
# -- Compiling package shift_driver_pkg
# -- Compiling package shift_reg_agent_pkg
# -- Importing package shift_driver_pkg
# -- Importing package shift_reg_sequencer_pkg
# -- Importing package shift_reg_monitor_pkg
# -- Compiling package shift_reg_env_pkg
# -- Importing package shift_reg_agent_pkg
# -- Importing package shift_reg_scoreboard_pkg
# -- Importing package shift_reg_coverage_pkg
# -- Compiling package shift_reg_test_pkg
# -- Importing package shift_reg_env_pkg
# -- Importing package shift_reg_reset_seq_pkg
# -- Importing package shift_reg_main_seq_pkg
# -- Compiling package top_sv_unit
# -- Importing package shift_reg_test_pkg
# -- Compiling module top
# 
# Top level modules:
# 	top
# End time: 14:17:57 on May 09,2025, Elapsed time: 0:00:01
# Errors: 0, Warnings: 0
# vsim -voptargs="+acc" work.top -classdebug -uvmcontrol=all 
# Start time: 14:17:57 on May 09,2025
# ** Note: (vsim-3812) Design is being optimized...
# Loading sv_std.std
# Loading work.shift_reg_if(fast)
# Loading mtiUvm.uvm_pkg(fast)
# Loading work.shift_reg_seq_item_pkg(fast)
# Loading work.shift_reg_main_seq_pkg(fast)
# Loading work.shift_reg_reset_seq_pkg(fast)
# Loading work.shift_reg_coverage_pkg(fast)
# Loading work.shift_reg_scoreboard_pkg(fast)
# Loading work.shift_config_pkg(fast)
# Loading work.shift_reg_monitor_pkg(fast)
# Loading work.shift_reg_sequencer_pkg(fast)
# Loading work.shift_driver_pkg(fast)
# Loading work.shift_reg_agent_pkg(fast)
# Loading work.shift_reg_env_pkg(fast)
# Loading work.shift_reg_test_pkg(fast)
# Loading work.top_sv_unit(fast)
# Loading mtiUvm.questa_uvm_pkg(fast)
# Loading work.top(fast)
# Loading work.shift_reg_if(fast__2)
# Loading work.shift_reg(fast)
# Loading C:/questasim64_2021.1/uvm-1.1d\win64\uvm_dpi.dll
# ----------------------------------------------------------------
# UVM-1.1d
# (C) 2007-2013 Mentor Graphics Corporation
# (C) 2007-2013 Cadence Design Systems, Inc.
# (C) 2006-2013 Synopsys, Inc.
# (C) 2011-2013 Cypress Semiconductor Corp.
# ----------------------------------------------------------------
# 
#   ***********       IMPORTANT RELEASE NOTES         ************
# 
#   You are using a version of the UVM library that has been compiled
#   with `UVM_NO_DEPRECATED undefined.
#   See http://www.eda.org/svdb/view.php?id=3313 for more details.
# 
#   You are using a version of the UVM library that has been compiled
#   with `UVM_OBJECT_MUST_HAVE_CONSTRUCTOR undefined.
#   See http://www.eda.org/svdb/view.php?id=3770 for more details.
# 
#       (Specify +UVM_NO_RELNOTES to turn off this notice)
# 
# UVM_INFO verilog_src/questa_uvm_pkg-1.2/src/questa_uvm_pkg.sv(277) @ 0: reporter [Questa UVM] QUESTA_UVM-1.2.3
# UVM_INFO verilog_src/questa_uvm_pkg-1.2/src/questa_uvm_pkg.sv(278) @ 0: reporter [Questa UVM]  questa_uvm::init(all)
# UVM_INFO @ 0: reporter [RNTST] Running test shift_reg_test...
# UVM_INFO shift_reg_test.sv(56) @ 0: uvm_test_top [run_phase] RESET Asserted
# **************************************************************************
# * Questa UVM Transaction Recording Turned ON.                            *
# * recording_detail has been set.                                         *
# *  To turn off, set 'recording_detail' to off:                           *
# * uvm_config_db#(int)            ::set(null, "", "recording_detail", 0); *
# * uvm_config_db#(uvm_bitstream_t)::set(null, "", "recording_detail", 0); *
# **************************************************************************
# UVM_INFO shift_reg_driver.sv(49) @ 2: uvm_test_top.env.agt.shift_driver [run_phase]  reset = 1, serial_in = 0, direction = 0, mode = 0, datain = 0, dataout = x
# UVM_INFO shift_reg_mon.sv(41) @ 2: uvm_test_top.env.agt.shift_reg_monitor [run_phase]  reset = 1, serial_in = 0, direction = 0, mode = 0, datain = 0, dataout = 0
# UVM_INFO shift_reg_scoreboard.sv(50) @ 2: uvm_test_top.env.shift_reg_scoreboard [run_phase] Correct dataout_ref:  reset = 1, serial_in = 0, direction = 0, mode = 0, datain = 0, dataout = 0
# UVM_INFO shift_reg_test.sv(58) @ 2: uvm_test_top [run_phase] RESET deAsserted
# UVM_INFO shift_reg_test.sv(61) @ 2: uvm_test_top [run_phase] Main Asserted
# UVM_INFO shift_reg_driver.sv(49) @ 4: uvm_test_top.env.agt.shift_driver [run_phase]  reset = 0, serial_in = 0, direction = 1, mode = 1, datain = 111101, dataout = x
# UVM_INFO shift_reg_mon.sv(41) @ 4: uvm_test_top.env.agt.shift_reg_monitor [run_phase]  reset = 0, serial_in = 0, direction = 1, mode = 1, datain = 111101, dataout = 111011
# UVM_INFO shift_reg_scoreboard.sv(50) @ 4: uvm_test_top.env.shift_reg_scoreboard [run_phase] Correct dataout_ref:  reset = 0, serial_in = 0, direction = 1, mode = 1, datain = 111101, dataout = 111011
# UVM_INFO shift_reg_driver.sv(49) @ 6: uvm_test_top.env.agt.shift_driver [run_phase]  reset = 0, serial_in = 1, direction = 0, mode = 1, datain = 100011, dataout = x
# UVM_INFO shift_reg_mon.sv(41) @ 6: uvm_test_top.env.agt.shift_reg_monitor [run_phase]  reset = 0, serial_in = 1, direction = 0, mode = 1, datain = 100011, dataout = 110001
# UVM_INFO shift_reg_scoreboard.sv(50) @ 6: uvm_test_top.env.shift_reg_scoreboard [run_phase] Correct dataout_ref:  reset = 0, serial_in = 1, direction = 0, mode = 1, datain = 100011, dataout = 110001
# UVM_INFO shift_reg_driver.sv(49) @ 8: uvm_test_top.env.agt.shift_driver [run_phase]  reset = 0, serial_in = 0, direction = 1, mode = 0, datain = 1100, dataout = x
# UVM_INFO shift_reg_mon.sv(41) @ 8: uvm_test_top.env.agt.shift_reg_monitor [run_phase]  reset = 0, serial_in = 0, direction = 1, mode = 0, datain = 1100, dataout = 11000
# UVM_INFO shift_reg_scoreboard.sv(50) @ 8: uvm_test_top.env.shift_reg_scoreboard [run_phase] Correct dataout_ref:  reset = 0, serial_in = 0, direction = 1, mode = 0, datain = 1100, dataout = 11000
# UVM_INFO shift_reg_driver.sv(49) @ 10: uvm_test_top.env.agt.shift_driver [run_phase]  reset = 0, serial_in = 1, direction = 1, mode = 1, datain = 11111, dataout = x
# UVM_INFO shift_reg_mon.sv(41) @ 10: uvm_test_top.env.agt.shift_reg_monitor [run_phase]  reset = 0, serial_in = 1, direction = 1, mode = 1, datain = 11111, dataout = 111110
# UVM_INFO shift_reg_scoreboard.sv(50) @ 10: uvm_test_top.env.shift_reg_scoreboard [run_phase] Correct dataout_ref:  reset = 0, serial_in = 1, direction = 1, mode = 1, datain = 11111, dataout = 111110
# UVM_INFO shift_reg_driver.sv(49) @ 12: uvm_test_top.env.agt.shift_driver [run_phase]  reset = 0, serial_in = 1, direction = 0, mode = 0, datain = 10111, dataout = x
# UVM_INFO shift_reg_mon.sv(41) @ 12: uvm_test_top.env.agt.shift_reg_monitor [run_phase]  reset = 0, serial_in = 1, direction = 0, mode = 0, datain = 10111, dataout = 101011
# UVM_INFO shift_reg_scoreboard.sv(50) @ 12: uvm_test_top.env.shift_reg_scoreboard [run_phase] Correct dataout_ref:  reset = 0, serial_in = 1, direction = 0, mode = 0, datain = 10111, dataout = 101011
# UVM_INFO shift_reg_driver.sv(49) @ 14: uvm_test_top.env.agt.shift_driver [run_phase]  reset = 0, serial_in = 0, direction = 0, mode = 1, datain = 101101, dataout = x
# UVM_INFO shift_reg_mon.sv(41) @ 14: uvm_test_top.env.agt.shift_reg_monitor [run_phase]  reset = 0, serial_in = 0, direction = 0, mode = 1, datain = 101101, dataout = 110110
# UVM_INFO shift_reg_scoreboard.sv(50) @ 14: uvm_test_top.env.shift_reg_scoreboard [run_phase] Correct dataout_ref:  reset = 0, serial_in = 0, direction = 0, mode = 1, datain = 101101, dataout = 110110
# UVM_INFO shift_reg_driver.sv(49) @ 16: uvm_test_top.env.agt.shift_driver [run_phase]  reset = 0, serial_in = 1, direction = 0, mode = 0, datain = 111000, dataout = x
# UVM_INFO shift_reg_mon.sv(41) @ 16: uvm_test_top.env.agt.shift_reg_monitor [run_phase]  reset = 0, serial_in = 1, direction = 0, mode = 0, datain = 111000, dataout = 111100
# UVM_INFO shift_reg_scoreboard.sv(50) @ 16: uvm_test_top.env.shift_reg_scoreboard [run_phase] Correct dataout_ref:  reset = 0, serial_in = 1, direction = 0, mode = 0, datain = 111000, dataout = 111100
# UVM_INFO shift_reg_driver.sv(49) @ 18: uvm_test_top.env.agt.shift_driver [run_phase]  reset = 0, serial_in = 1, direction = 1, mode = 1, datain = 110011, dataout = x
# UVM_INFO shift_reg_mon.sv(41) @ 18: uvm_test_top.env.agt.shift_reg_monitor [run_phase]  reset = 0, serial_in = 1, direction = 1, mode = 1, datain = 110011, dataout = 100111
# UVM_INFO shift_reg_scoreboard.sv(50) @ 18: uvm_test_top.env.shift_reg_scoreboard [run_phase] Correct dataout_ref:  reset = 0, serial_in = 1, direction = 1, mode = 1, datain = 110011, dataout = 100111
# UVM_INFO shift_reg_driver.sv(49) @ 20: uvm_test_top.env.agt.shift_driver [run_phase]  reset = 0, serial_in = 0, direction = 0, mode = 1, datain = 1001, dataout = x
# UVM_INFO shift_reg_mon.sv(41) @ 20: uvm_test_top.env.agt.shift_reg_monitor [run_phase]  reset = 0, serial_in = 0, direction = 0, mode = 1, datain = 1001, dataout = 100100
# UVM_INFO shift_reg_scoreboard.sv(50) @ 20: uvm_test_top.env.shift_reg_scoreboard [run_phase] Correct dataout_ref:  reset = 0, serial_in = 0, direction = 0, mode = 1, datain = 1001, dataout = 100100
# UVM_INFO shift_reg_driver.sv(49) @ 22: uvm_test_top.env.agt.shift_driver [run_phase]  reset = 0, serial_in = 0, direction = 0, mode = 1, datain = 11111, dataout = x
# UVM_INFO shift_reg_mon.sv(41) @ 22: uvm_test_top.env.agt.shift_reg_monitor [run_phase]  reset = 0, serial_in = 0, direction = 0, mode = 1, datain = 11111, dataout = 101111
# UVM_INFO shift_reg_scoreboard.sv(50) @ 22: uvm_test_top.env.shift_reg_scoreboard [run_phase] Correct dataout_ref:  reset = 0, serial_in = 0, direction = 0, mode = 1, datain = 11111, dataout = 101111
# UVM_INFO shift_reg_driver.sv(49) @ 24: uvm_test_top.env.agt.shift_driver [run_phase]  reset = 0, serial_in = 1, direction = 1, mode = 1, datain = 101010, dataout = x
# UVM_INFO shift_reg_mon.sv(41) @ 24: uvm_test_top.env.agt.shift_reg_monitor [run_phase]  reset = 0, serial_in = 1, direction = 1, mode = 1, datain = 101010, dataout = 10101
# UVM_INFO shift_reg_scoreboard.sv(50) @ 24: uvm_test_top.env.shift_reg_scoreboard [run_phase] Correct dataout_ref:  reset = 0, serial_in = 1, direction = 1, mode = 1, datain = 101010, dataout = 10101
# UVM_INFO shift_reg_driver.sv(49) @ 26: uvm_test_top.env.agt.shift_driver [run_phase]  reset = 0, serial_in = 0, direction = 1, mode = 0, datain = 1010, dataout = x
# UVM_INFO shift_reg_mon.sv(41) @ 26: uvm_test_top.env.agt.shift_reg_monitor [run_phase]  reset = 0, serial_in = 0, direction = 1, mode = 0, datain = 1010, dataout = 10100
# UVM_INFO shift_reg_scoreboard.sv(50) @ 26: uvm_test_top.env.shift_reg_scoreboard [run_phase] Correct dataout_ref:  reset = 0, serial_in = 0, direction = 1, mode = 0, datain = 1010, dataout = 10100
# UVM_INFO shift_reg_driver.sv(49) @ 28: uvm_test_top.env.agt.shift_driver [run_phase]  reset = 0, serial_in = 0, direction = 1, mode = 1, datain = 110000, dataout = x
# UVM_INFO shift_reg_mon.sv(41) @ 28: uvm_test_top.env.agt.shift_reg_monitor [run_phase]  reset = 0, serial_in = 0, direction = 1, mode = 1, datain = 110000, dataout = 100001
# UVM_INFO shift_reg_scoreboard.sv(50) @ 28: uvm_test_top.env.shift_reg_scoreboard [run_phase] Correct dataout_ref:  reset = 0, serial_in = 0, direction = 1, mode = 1, datain = 110000, dataout = 100001
# UVM_INFO shift_reg_driver.sv(49) @ 30: uvm_test_top.env.agt.shift_driver [run_phase]  reset = 0, serial_in = 0, direction = 1, mode = 1, datain = 0, dataout = x
# UVM_INFO shift_reg_mon.sv(41) @ 30: uvm_test_top.env.agt.shift_reg_monitor [run_phase]  reset = 0, serial_in = 0, direction = 1, mode = 1, datain = 0, dataout = 0
# UVM_INFO shift_reg_scoreboard.sv(50) @ 30: uvm_test_top.env.shift_reg_scoreboard [run_phase] Correct dataout_ref:  reset = 0, serial_in = 0, direction = 1, mode = 1, datain = 0, dataout = 0
# UVM_INFO shift_reg_driver.sv(49) @ 32: uvm_test_top.env.agt.shift_driver [run_phase]  reset = 0, serial_in = 0, direction = 1, mode = 1, datain = 1010, dataout = x
# UVM_INFO shift_reg_mon.sv(41) @ 32: uvm_test_top.env.agt.shift_reg_monitor [run_phase]  reset = 0, serial_in = 0, direction = 1, mode = 1, datain = 1010, dataout = 10100
# UVM_INFO shift_reg_scoreboard.sv(50) @ 32: uvm_test_top.env.shift_reg_scoreboard [run_phase] Correct dataout_ref:  reset = 0, serial_in = 0, direction = 1, mode = 1, datain = 1010, dataout = 10100
# UVM_INFO shift_reg_driver.sv(49) @ 34: uvm_test_top.env.agt.shift_driver [run_phase]  reset = 0, serial_in = 1, direction = 1, mode = 1, datain = 110011, dataout = x
# UVM_INFO shift_reg_mon.sv(41) @ 34: uvm_test_top.env.agt.shift_reg_monitor [run_phase]  reset = 0, serial_in = 1, direction = 1, mode = 1, datain = 110011, dataout = 100111
# UVM_INFO shift_reg_scoreboard.sv(50) @ 34: uvm_test_top.env.shift_reg_scoreboard [run_phase] Correct dataout_ref:  reset = 0, serial_in = 1, direction = 1, mode = 1, datain = 110011, dataout = 100111
# UVM_INFO shift_reg_driver.sv(49) @ 36: uvm_test_top.env.agt.shift_driver [run_phase]  reset = 0, serial_in = 1, direction = 0, mode = 0, datain = 101001, dataout = x
# UVM_INFO shift_reg_mon.sv(41) @ 36: uvm_test_top.env.agt.shift_reg_monitor [run_phase]  reset = 0, serial_in = 1, direction = 0, mode = 0, datain = 101001, dataout = 110100
# UVM_INFO shift_reg_scoreboard.sv(50) @ 36: uvm_test_top.env.shift_reg_scoreboard [run_phase] Correct dataout_ref:  reset = 0, serial_in = 1, direction = 0, mode = 0, datain = 101001, dataout = 110100
# UVM_INFO shift_reg_driver.sv(49) @ 38: uvm_test_top.env.agt.shift_driver [run_phase]  reset = 0, serial_in = 1, direction = 1, mode = 1, datain = 100110, dataout = x
# UVM_INFO shift_reg_mon.sv(41) @ 38: uvm_test_top.env.agt.shift_reg_monitor [run_phase]  reset = 0, serial_in = 1, direction = 1, mode = 1, datain = 100110, dataout = 1101
# UVM_INFO shift_reg_scoreboard.sv(50) @ 38: uvm_test_top.env.shift_reg_scoreboard [run_phase] Correct dataout_ref:  reset = 0, serial_in = 1, direction = 1, mode = 1, datain = 100110, dataout = 1101
# UVM_INFO shift_reg_driver.sv(49) @ 40: uvm_test_top.env.agt.shift_driver [run_phase]  reset = 0, serial_in = 1, direction = 0, mode = 1, datain = 110011, dataout = x
# UVM_INFO shift_reg_mon.sv(41) @ 40: uvm_test_top.env.agt.shift_reg_monitor [run_phase]  reset = 0, serial_in = 1, direction = 0, mode = 1, datain = 110011, dataout = 111001
# UVM_INFO shift_reg_scoreboard.sv(50) @ 40: uvm_test_top.env.shift_reg_scoreboard [run_phase] Correct dataout_ref:  reset = 0, serial_in = 1, direction = 0, mode = 1, datain = 110011, dataout = 111001
# UVM_INFO shift_reg_driver.sv(49) @ 42: uvm_test_top.env.agt.shift_driver [run_phase]  reset = 0, serial_in = 1, direction = 1, mode = 1, datain = 0, dataout = x
# UVM_INFO shift_reg_mon.sv(41) @ 42: uvm_test_top.env.agt.shift_reg_monitor [run_phase]  reset = 0, serial_in = 1, direction = 1, mode = 1, datain = 0, dataout = 0
# UVM_INFO shift_reg_scoreboard.sv(50) @ 42: uvm_test_top.env.shift_reg_scoreboard [run_phase] Correct dataout_ref:  reset = 0, serial_in = 1, direction = 1, mode = 1, datain = 0, dataout = 0
# UVM_INFO shift_reg_driver.sv(49) @ 44: uvm_test_top.env.agt.shift_driver [run_phase]  reset = 0, serial_in = 0, direction = 1, mode = 0, datain = 11111, dataout = x
# UVM_INFO shift_reg_mon.sv(41) @ 44: uvm_test_top.env.agt.shift_reg_monitor [run_phase]  reset = 0, serial_in = 0, direction = 1, mode = 0, datain = 11111, dataout = 111110
# UVM_INFO shift_reg_scoreboard.sv(50) @ 44: uvm_test_top.env.shift_reg_scoreboard [run_phase] Correct dataout_ref:  reset = 0, serial_in = 0, direction = 1, mode = 0, datain = 11111, dataout = 111110
# UVM_INFO shift_reg_driver.sv(49) @ 46: uvm_test_top.env.agt.shift_driver [run_phase]  reset = 0, serial_in = 0, direction = 0, mode = 1, datain = 10110, dataout = x
# UVM_INFO shift_reg_mon.sv(41) @ 46: uvm_test_top.env.agt.shift_reg_monitor [run_phase]  reset = 0, serial_in = 0, direction = 0, mode = 1, datain = 10110, dataout = 1011
# UVM_INFO shift_reg_scoreboard.sv(50) @ 46: uvm_test_top.env.shift_reg_scoreboard [run_phase] Correct dataout_ref:  reset = 0, serial_in = 0, direction = 0, mode = 1, datain = 10110, dataout = 1011
# UVM_INFO shift_reg_driver.sv(49) @ 48: uvm_test_top.env.agt.shift_driver [run_phase]  reset = 0, serial_in = 0, direction = 0, mode = 0, datain = 1010, dataout = x
# UVM_INFO shift_reg_mon.sv(41) @ 48: uvm_test_top.env.agt.shift_reg_monitor [run_phase]  reset = 0, serial_in = 0, direction = 0, mode = 0, datain = 1010, dataout = 101
# UVM_INFO shift_reg_scoreboard.sv(50) @ 48: uvm_test_top.env.shift_reg_scoreboard [run_phase] Correct dataout_ref:  reset = 0, serial_in = 0, direction = 0, mode = 0, datain = 1010, dataout = 101
# UVM_INFO shift_reg_driver.sv(49) @ 50: uvm_test_top.env.agt.shift_driver [run_phase]  reset = 0, serial_in = 1, direction = 1, mode = 1, datain = 110110, dataout = x
# UVM_INFO shift_reg_mon.sv(41) @ 50: uvm_test_top.env.agt.shift_reg_monitor [run_phase]  reset = 0, serial_in = 1, direction = 1, mode = 1, datain = 110110, dataout = 101101
# UVM_INFO shift_reg_scoreboard.sv(50) @ 50: uvm_test_top.env.shift_reg_scoreboard [run_phase] Correct dataout_ref:  reset = 0, serial_in = 1, direction = 1, mode = 1, datain = 110110, dataout = 101101
# UVM_INFO shift_reg_driver.sv(49) @ 52: uvm_test_top.env.agt.shift_driver [run_phase]  reset = 0, serial_in = 0, direction = 0, mode = 0, datain = 110100, dataout = x
# UVM_INFO shift_reg_mon.sv(41) @ 52: uvm_test_top.env.agt.shift_reg_monitor [run_phase]  reset = 0, serial_in = 0, direction = 0, mode = 0, datain = 110100, dataout = 11010
# UVM_INFO shift_reg_scoreboard.sv(50) @ 52: uvm_test_top.env.shift_reg_scoreboard [run_phase] Correct dataout_ref:  reset = 0, serial_in = 0, direction = 0, mode = 0, datain = 110100, dataout = 11010
# UVM_INFO shift_reg_driver.sv(49) @ 54: uvm_test_top.env.agt.shift_driver [run_phase]  reset = 0, serial_in = 1, direction = 1, mode = 0, datain = 110101, dataout = x
# UVM_INFO shift_reg_mon.sv(41) @ 54: uvm_test_top.env.agt.shift_reg_monitor [run_phase]  reset = 0, serial_in = 1, direction = 1, mode = 0, datain = 110101, dataout = 101011
# UVM_INFO shift_reg_scoreboard.sv(50) @ 54: uvm_test_top.env.shift_reg_scoreboard [run_phase] Correct dataout_ref:  reset = 0, serial_in = 1, direction = 1, mode = 0, datain = 110101, dataout = 101011
# UVM_INFO shift_reg_driver.sv(49) @ 56: uvm_test_top.env.agt.shift_driver [run_phase]  reset = 0, serial_in = 0, direction = 1, mode = 1, datain = 101110, dataout = x
# UVM_INFO shift_reg_mon.sv(41) @ 56: uvm_test_top.env.agt.shift_reg_monitor [run_phase]  reset = 0, serial_in = 0, direction = 1, mode = 1, datain = 101110, dataout = 11101
# UVM_INFO shift_reg_scoreboard.sv(50) @ 56: uvm_test_top.env.shift_reg_scoreboard [run_phase] Correct dataout_ref:  reset = 0, serial_in = 0, direction = 1, mode = 1, datain = 101110, dataout = 11101
# UVM_INFO shift_reg_driver.sv(49) @ 58: uvm_test_top.env.agt.shift_driver [run_phase]  reset = 0, serial_in = 1, direction = 1, mode = 1, datain = 10001, dataout = x
# UVM_INFO shift_reg_mon.sv(41) @ 58: uvm_test_top.env.agt.shift_reg_monitor [run_phase]  reset = 0, serial_in = 1, direction = 1, mode = 1, datain = 10001, dataout = 100010
# UVM_INFO shift_reg_scoreboard.sv(50) @ 58: uvm_test_top.env.shift_reg_scoreboard [run_phase] Correct dataout_ref:  reset = 0, serial_in = 1, direction = 1, mode = 1, datain = 10001, dataout = 100010
# UVM_INFO shift_reg_driver.sv(49) @ 60: uvm_test_top.env.agt.shift_driver [run_phase]  reset = 0, serial_in = 1, direction = 1, mode = 1, datain = 110001, dataout = x
# UVM_INFO shift_reg_mon.sv(41) @ 60: uvm_test_top.env.agt.shift_reg_monitor [run_phase]  reset = 0, serial_in = 1, direction = 1, mode = 1, datain = 110001, dataout = 100011
# UVM_INFO shift_reg_scoreboard.sv(50) @ 60: uvm_test_top.env.shift_reg_scoreboard [run_phase] Correct dataout_ref:  reset = 0, serial_in = 1, direction = 1, mode = 1, datain = 110001, dataout = 100011
# UVM_INFO shift_reg_driver.sv(49) @ 62: uvm_test_top.env.agt.shift_driver [run_phase]  reset = 0, serial_in = 0, direction = 1, mode = 1, datain = 1110, dataout = x
# UVM_INFO shift_reg_mon.sv(41) @ 62: uvm_test_top.env.agt.shift_reg_monitor [run_phase]  reset = 0, serial_in = 0, direction = 1, mode = 1, datain = 1110, dataout = 11100
# UVM_INFO shift_reg_scoreboard.sv(50) @ 62: uvm_test_top.env.shift_reg_scoreboard [run_phase] Correct dataout_ref:  reset = 0, serial_in = 0, direction = 1, mode = 1, datain = 1110, dataout = 11100
# UVM_INFO shift_reg_driver.sv(49) @ 64: uvm_test_top.env.agt.shift_driver [run_phase]  reset = 0, serial_in = 0, direction = 0, mode = 0, datain = 101000, dataout = x
# UVM_INFO shift_reg_mon.sv(41) @ 64: uvm_test_top.env.agt.shift_reg_monitor [run_phase]  reset = 0, serial_in = 0, direction = 0, mode = 0, datain = 101000, dataout = 10100
# UVM_INFO shift_reg_scoreboard.sv(50) @ 64: uvm_test_top.env.shift_reg_scoreboard [run_phase] Correct dataout_ref:  reset = 0, serial_in = 0, direction = 0, mode = 0, datain = 101000, dataout = 10100
# UVM_INFO shift_reg_driver.sv(49) @ 66: uvm_test_top.env.agt.shift_driver [run_phase]  reset = 0, serial_in = 0, direction = 0, mode = 1, datain = 110001, dataout = x
# UVM_INFO shift_reg_mon.sv(41) @ 66: uvm_test_top.env.agt.shift_reg_monitor [run_phase]  reset = 0, serial_in = 0, direction = 0, mode = 1, datain = 110001, dataout = 111000
# UVM_INFO shift_reg_scoreboard.sv(50) @ 66: uvm_test_top.env.shift_reg_scoreboard [run_phase] Correct dataout_ref:  reset = 0, serial_in = 0, direction = 0, mode = 1, datain = 110001, dataout = 111000
# UVM_INFO shift_reg_driver.sv(49) @ 68: uvm_test_top.env.agt.shift_driver [run_phase]  reset = 0, serial_in = 0, direction = 1, mode = 0, datain = 111100, dataout = x
# UVM_INFO shift_reg_mon.sv(41) @ 68: uvm_test_top.env.agt.shift_reg_monitor [run_phase]  reset = 0, serial_in = 0, direction = 1, mode = 0, datain = 111100, dataout = 111000
# UVM_INFO shift_reg_scoreboard.sv(50) @ 68: uvm_test_top.env.shift_reg_scoreboard [run_phase] Correct dataout_ref:  reset = 0, serial_in = 0, direction = 1, mode = 0, datain = 111100, dataout = 111000
# UVM_INFO shift_reg_driver.sv(49) @ 70: uvm_test_top.env.agt.shift_driver [run_phase]  reset = 0, serial_in = 1, direction = 0, mode = 1, datain = 100100, dataout = x
# UVM_INFO shift_reg_mon.sv(41) @ 70: uvm_test_top.env.agt.shift_reg_monitor [run_phase]  reset = 0, serial_in = 1, direction = 0, mode = 1, datain = 100100, dataout = 10010
# UVM_INFO shift_reg_scoreboard.sv(50) @ 70: uvm_test_top.env.shift_reg_scoreboard [run_phase] Correct dataout_ref:  reset = 0, serial_in = 1, direction = 0, mode = 1, datain = 100100, dataout = 10010
# UVM_INFO shift_reg_driver.sv(49) @ 72: uvm_test_top.env.agt.shift_driver [run_phase]  reset = 0, serial_in = 1, direction = 0, mode = 1, datain = 10001, dataout = x
# UVM_INFO shift_reg_mon.sv(41) @ 72: uvm_test_top.env.agt.shift_reg_monitor [run_phase]  reset = 0, serial_in = 1, direction = 0, mode = 1, datain = 10001, dataout = 101000
# UVM_INFO shift_reg_scoreboard.sv(50) @ 72: uvm_test_top.env.shift_reg_scoreboard [run_phase] Correct dataout_ref:  reset = 0, serial_in = 1, direction = 0, mode = 1, datain = 10001, dataout = 101000
# UVM_INFO shift_reg_driver.sv(49) @ 74: uvm_test_top.env.agt.shift_driver [run_phase]  reset = 0, serial_in = 0, direction = 1, mode = 1, datain = 110001, dataout = x
# UVM_INFO shift_reg_mon.sv(41) @ 74: uvm_test_top.env.agt.shift_reg_monitor [run_phase]  reset = 0, serial_in = 0, direction = 1, mode = 1, datain = 110001, dataout = 100011
# UVM_INFO shift_reg_scoreboard.sv(50) @ 74: uvm_test_top.env.shift_reg_scoreboard [run_phase] Correct dataout_ref:  reset = 0, serial_in = 0, direction = 1, mode = 1, datain = 110001, dataout = 100011
# UVM_INFO shift_reg_driver.sv(49) @ 76: uvm_test_top.env.agt.shift_driver [run_phase]  reset = 0, serial_in = 0, direction = 1, mode = 0, datain = 100, dataout = x
